[
  {"id":"1",
    "created":"2024-01-24 19:50:01.418052",
    "updated":"2024-01-24 19:50:01.418081",
    "first_name":"Matsiko",
    "last_name":"Innocent Travy",
    "gender":"M",
    "date_of_birth":"2024-01-24",
    "tribe":"Mukiga",
    "blood_group":"B",
    "email":"centtravy@gmail.com",
    "phone":"0771917923",
    "aakey":"",
    "active_status":"1",
    "NIN":null,
    "address":"Mengo - Rubaga",
    "nationality":"Ugandan",
    "passport_number":null,
    "student_unique_id": "ST123456789",
    "chronic_illness":  [
      {"condition_id": 34, "condition_name": "Asthma"},
      {"condition_id": 12, "condition_name": "Short sightedness"},
      {"condition_id": 7, "condition_name": "Hepatitis B"}
    ],
    "chronic_illness_comment": "Difficult in breathing, Constant pain in the abdomen",
    "family_history": [
      {"condition_id": 23, "condition_name": "Diabetes"},
      {"condition_id": 34, "condition_name": "Asthma"},
      {"condition_id": 11, "condition_name": "Epilepsy"},
      {"condition_id": 18, "condition_name": "Sickle cells"},
      {"condition_id": 29, "condition_name": "Sickle cells"},
      {"condition_id": 71, "condition_name": "Heart disease"}
    ],
    "family_history_comment": "Aunt has diabetes, My cousin died of sickle cell",
    "medical_history": [
      {"id": 16, "condition_name": "Tuberculosis"},
      {"id": 9, "condition_name": "Major accident"}
    ],
    "medical_history_comment": "Pain in the leg when playing",
    "allergies": [
      {"id": 6, "name": "Dust"},
      {"id": 2, "name": "Cold weather"},
      {"id": 1, "name": "Panadol"}
    ],
    "allergies_comment": "Dust makes me cough, Panadol itches me, I dont like cold weather",
    "vaccination": [
      {"id": 3, "name": "Yellow Fever", "issue_date": "23-11-15"},
      {"id": 7, "name": "COVID 19", "issue_date": "17-08-21"}
    ],
    "vaccination_comment": " "
  },
  {"id":"2",
    "created":"2024-01-24 19:50:01.418052",
    "updated":"2024-01-24 19:50:01.418081",
    "first_name":"Faridah",
    "last_name":"Mutamuriza",
    "gender":"F",
    "date_of_birth":"2024-01-24",
    "tribe":"Mufumbira",
    "blood_group":"AB",
    "email":"fm@gmail.com",
    "phone":"076417923",
    "aakey":"",
    "active_status":"1",
    "NIN":null,
    "address":"Wobulenzi - Nakawa Zone",
    "nationality":"Ugandan",
    "passport_number":null,
    "student_unique_id": "ST123456779",
    "chronic_illness":  [

    ],
    "chronic_illness_comment": "",
    "family_history": [

    ],
    "family_history_comment": "",
    "medical_history": [
    ],
    "medical_history_comment": "",
    "allergies": [

    ],
    "allergies_comment": "",
    "vaccination": [

    ],
    "vaccination_comment": ""
  }
]



